{
    "msg": "success",
    "code": 200,
    "data": {
        "totalCount": 1808,
        "totalPage": 181,
        "ext": null,
        "pageSize": 10,
        "currentPage": 1,
        "hasNext": true,
        "list": [
            {
                "posId": 222253,
                "posName": "0929运营位资讯",
                "pageName": "啊啊页面咿呀呀呀",
                "previewUrl": "https://t1.focus-img.cn/focus-op/test/b2d92433c9a24288f567b228c33608ad.jpg",
                "cityId": 1,
                "description": "0929运营位资讯描述",
                "updateTime": 1577167457000,
                "adFlag": 0,
                "type": 1,
                "clearEnable": 0,
                "lastModifyAccount": "thinkzhan@sohu-inc.com"
            },
            {
                "posId": 222254,
                "posName": "0929资讯4+1",
                "pageName": "啊啊页面咿呀呀呀",
                "previewUrl": "https://t1.focus-img.cn/focus-op/test/b2d92433c9a24288f567b228c33608ad.jpg",
                "cityId": 1,
                "description": "0929资讯4+1描述",
                "updateTime": 1571053897000,
                "adFlag": 0,
                "type": 1,
                "clearEnable": 0,
                "lastModifyAccount": "AdSystem"
            },
            {
                "posId": 222268,
                "posName": "0929资讯4+1（2）",
                "pageName": "啊啊页面咿呀呀呀",
                "previewUrl": "https://t1.focus-img.cn/focus-op/test/20dd4cd050c3bc8c6a879891740114c1.jpg",
                "cityId": 1,
                "description": "0929资讯4+1描述",
                "updateTime": 1571053897000,
                "adFlag": 0,
                "type": 1,
                "clearEnable": 0,
                "lastModifyAccount": "AdSystem"
            },
            {
                "posId": 222264,
                "posName": "1001位置点评",
                "pageName": "啊啊页面咿呀呀呀",
                "previewUrl": "https://t4.focus-img.cn/focus-op/test/21873fa98c60f7ccfca1eb3f6cd83f07.jpg",
                "cityId": 1,
                "description": "1001位置点评描述",
                "updateTime": 1571209911000,
                "adFlag": 0,
                "type": 1,
                "clearEnable": 0,
                "lastModifyAccount": "AdSystem"
            },
            {
                "posId": 222263,
                "posName": "1001位置论坛",
                "pageName": "啊啊页面咿呀呀呀",
                "previewUrl": "https://t4.focus-img.cn/focus-op/test/f8b2ac49bfae14b3e9764a7cf97282fd.jpg",
                "cityId": 1,
                "description": "1001位置论坛",
                "updateTime": 1571210022000,
                "adFlag": 0,
                "type": 1,
                "clearEnable": 0,
                "lastModifyAccount": "AdSystem"
            },
            {
                "posId": 222262,
                "posName": "1001位置问答",
                "pageName": "啊啊页面咿呀呀呀",
                "previewUrl": "https://t4.focus-img.cn/focus-op/test/a1a2072697c305204b2c3ef11f856c18.jpg",
                "cityId": 1,
                "description": "1001位置问答描述",
                "updateTime": 1571210996000,
                "adFlag": 0,
                "type": 1,
                "clearEnable": 0,
                "lastModifyAccount": "AdSystem"
            },
            {
                "posId": 222259,
                "posName": "1001位置直播",
                "pageName": "啊啊页面咿呀呀呀",
                "previewUrl": "https://t4.focus-img.cn/focus-op/test/a1a2072697c305204b2c3ef11f856c18.jpg",
                "cityId": 1,
                "description": "1001位置直播描述",
                "updateTime": 1577066527000,
                "adFlag": 0,
                "type": 1,
                "clearEnable": 0,
                "lastModifyAccount": "AdSystem"
            },
            {
                "posId": 222260,
                "posName": "1001新位置动态未更名",
                "pageName": "啊啊页面咿呀呀呀",
                "previewUrl": "https://t2.focus-img.cn/focus-op/test/6cb73b14b450404c579a59a8768d7a69.jpg",
                "cityId": 1,
                "description": "1001新位置动态未更名描述",
                "updateTime": 1577847921000,
                "adFlag": 0,
                "type": 1,
                "clearEnable": 0,
                "lastModifyAccount": "AdSystem"
            },
            {
                "posId": 222271,
                "posName": "1010楼盘运营位全",
                "pageName": "啊啊页面咿呀呀呀",
                "previewUrl": "https://t3.focus-img.cn/focus-op/test/edfaaa11798272604545816c2672266f.jpg",
                "cityId": 1,
                "description": "1010楼盘运营位全",
                "updateTime": 1571125517000,
                "adFlag": 0,
                "type": 1,
                "clearEnable": 0,
                "lastModifyAccount": "AdSystem"
            },
            {
                "posId": 340,
                "posName": "1218焦点测试运营位测试测试测试测试测试测试测试测试新建物理位名称新建物理位名称新建物理位名称新建物理位名称",
                "pageName": "页面名称字数分页面名称字数页面名称字数页面名称字数页面名称字数页面名称字数页面名称字数页面名称字数测",
                "previewUrl": "http://t2.focus-img.cn/focus-op/test/91beeef9adaf3da250195652c0e5923e.png",
                "cityId": 1,
                "description": "描述",
                "updateTime": 1568012196000,
                "adFlag": 0,
                "type": 1,
                "clearEnable": 0,
                "lastModifyAccount": "danqi210992@sohu-inc.com"
            }
        ]
    }
}
